{
  "nodes": [
    {
      "id": "9db2f77505",
      "position": {
        "x": 865,
        "y": -75
      }
    },
    {
      "id": "1b7f65cf23",
      "position": {
        "x": 870,
        "y": 65
      }
    },
    {
      "id": "0460a29d40",
      "position": {
        "x": 875,
        "y": 325
      }
    },
    {
      "id": "c7b701be16",
      "position": {
        "x": 880,
        "y": 440
      }
    },
    {
      "id": "c5ca1a5244",
      "position": {
        "x": 880,
        "y": 555
      }
    },
    {
      "id": "366bd4f1a2",
      "position": {
        "x": 885,
        "y": 820
      }
    },
    {
      "id": "fa88e23732",
      "position": {
        "x": 1165,
        "y": -65
      }
    },
    {
      "id": "e0ca26667e",
      "position": {
        "x": 1170,
        "y": 80
      }
    },
    {
      "id": "c72c3d7982",
      "position": {
        "x": 1170,
        "y": 215
      }
    },
    {
      "id": "46e1fb826a",
      "position": {
        "x": 1170,
        "y": 385
      }
    },
    {
      "id": "980dc8ba37",
      "position": {
        "x": 1170,
        "y": 525
      }
    },
    {
      "id": "1a4e39259c",
      "position": {
        "x": 1190,
        "y": 845
      }
    },
    {
      "id": "5f694f7018",
      "position": {
        "x": 1460,
        "y": -55
      }
    },
    {
      "id": "cedeaa0462",
      "position": {
        "x": 1460,
        "y": 130
      }
    },
    {
      "id": "628babfe63",
      "position": {
        "x": 1470,
        "y": 275
      }
    },
    {
      "id": "4f83bd2d83",
      "position": {
        "x": 1490,
        "y": 405
      }
    },
    {
      "id": "d9fef34420",
      "position": {
        "x": 1495,
        "y": 565
      }
    },
    {
      "id": "959d480dd6",
      "position": {
        "x": 1500,
        "y": 710
      }
    },
    {
      "id": "ea45503cbc",
      "position": {
        "x": 1510,
        "y": 845
      }
    },
    {
      "id": "ccc5e66f44",
      "position": {
        "x": 1760,
        "y": -50
      }
    },
    {
      "id": "33848961e2",
      "position": {
        "x": 1760,
        "y": 145
      }
    },
    {
      "id": "a50497a035",
      "position": {
        "x": 1755,
        "y": 315
      }
    },
    {
      "id": "bc4b3d2bac",
      "position": {
        "x": 1775,
        "y": 445
      }
    },
    {
      "id": "97916dfc8a",
      "position": {
        "x": 1785,
        "y": 615
      }
    },
    {
      "id": "skill-5278d0",
      "position": {
        "x": 870,
        "y": 180
      }
    },
    {
      "id": "skill-535cbf",
      "position": {
        "x": 880,
        "y": 670
      }
    },
    {
      "id": "skill-f13eb7",
      "position": {
        "x": 900,
        "y": 960
      }
    },
    {
      "id": "skill-0f01ab",
      "position": {
        "x": 1170,
        "y": 690
      }
    },
    {
      "id": "skill-2ef472",
      "position": {
        "x": 1520,
        "y": 970
      }
    }
  ],
  "links": [
    {
      "source": "9db2f77505",
      "sourcePort": "out0",
      "target": "1b7f65cf23",
      "points": [
        {
          "x": 1071,
          "y": 21
        },
        {
          "x": 970,
          "y": 59
        }
      ]
    },
    {
      "source": "1b7f65cf23",
      "sourcePort": "out0",
      "target": "skill-5278d0",
      "points": [
        {
          "x": 1077,
          "y": 142
        },
        {
          "x": 970,
          "y": 173
        }
      ]
    },
    {
      "source": "0460a29d40",
      "sourcePort": "out0",
      "target": "c7b701be16",
      "points": [
        {
          "x": 1082,
          "y": 402
        },
        {
          "x": 980,
          "y": 434
        }
      ]
    },
    {
      "source": "c7b701be16",
      "sourcePort": "out0",
      "target": "c5ca1a5244",
      "points": [
        {
          "x": 1087,
          "y": 518
        },
        {
          "x": 980,
          "y": 548
        }
      ]
    },
    {
      "source": "c5ca1a5244",
      "sourcePort": "out0",
      "target": "skill-535cbf",
      "points": [
        {
          "x": 1087,
          "y": 632
        },
        {
          "x": 980,
          "y": 664
        }
      ]
    },
    {
      "source": "366bd4f1a2",
      "sourcePort": "out0",
      "target": "skill-f13eb7",
      "points": [
        {
          "x": 1092,
          "y": 915
        },
        {
          "x": 1000,
          "y": 954
        }
      ]
    },
    {
      "source": "fa88e23732",
      "sourcePort": "out0",
      "target": "e0ca26667e",
      "points": [
        {
          "x": 1372,
          "y": 13
        },
        {
          "x": 1270,
          "y": 74
        }
      ]
    },
    {
      "source": "e0ca26667e",
      "sourcePort": "out0",
      "target": "c72c3d7982",
      "points": [
        {
          "x": 1377,
          "y": 158
        },
        {
          "x": 1270,
          "y": 209
        }
      ]
    },
    {
      "source": "c72c3d7982",
      "sourcePort": "out0",
      "target": "46e1fb826a",
      "points": [
        {
          "x": 1377,
          "y": 328
        },
        {
          "x": 1270,
          "y": 379
        }
      ]
    },
    {
      "source": "46e1fb826a",
      "sourcePort": "out0",
      "target": "980dc8ba37",
      "points": [
        {
          "x": 1377,
          "y": 462
        },
        {
          "x": 1270,
          "y": 519
        }
      ]
    },
    {
      "source": "980dc8ba37",
      "sourcePort": "out0",
      "target": "skill-0f01ab",
      "points": [
        {
          "x": 1377,
          "y": 621
        },
        {
          "x": 1270,
          "y": 684
        }
      ]
    },
    {
      "source": "1a4e39259c",
      "sourcePort": "out0",
      "target": "5f694f7018",
      "points": [
        {
          "x": 1396,
          "y": 941
        },
        {
          "x": 1560,
          "y": -62
        }
      ]
    },
    {
      "source": "5f694f7018",
      "sourcePort": "out0",
      "target": "cedeaa0462",
      "points": [
        {
          "x": 1667,
          "y": 59
        },
        {
          "x": 1560,
          "y": 123
        }
      ]
    },
    {
      "source": "cedeaa0462",
      "sourcePort": "out0",
      "target": "628babfe63",
      "points": [
        {
          "x": 1667,
          "y": 208
        },
        {
          "x": 1570,
          "y": 268
        }
      ]
    },
    {
      "source": "628babfe63",
      "sourcePort": "out0",
      "target": "4f83bd2d83",
      "points": [
        {
          "x": 1677,
          "y": 335
        },
        {
          "x": 1590,
          "y": 398
        }
      ]
    },
    {
      "source": "4f83bd2d83",
      "sourcePort": "out0",
      "target": "d9fef34420",
      "points": [
        {
          "x": 1696,
          "y": 501
        },
        {
          "x": 1595,
          "y": 558
        }
      ]
    },
    {
      "source": "d9fef34420",
      "sourcePort": "out0",
      "target": "959d480dd6",
      "points": [
        {
          "x": 1702,
          "y": 643
        },
        {
          "x": 1600,
          "y": 704
        }
      ]
    },
    {
      "source": "959d480dd6",
      "sourcePort": "out0",
      "target": "ea45503cbc",
      "points": [
        {
          "x": 1707,
          "y": 788
        },
        {
          "x": 1610,
          "y": 838
        }
      ]
    },
    {
      "source": "ea45503cbc",
      "sourcePort": "out0",
      "target": "skill-2ef472",
      "points": [
        {
          "x": 1716,
          "y": 922
        },
        {
          "x": 1620,
          "y": 964
        }
      ]
    },
    {
      "source": "ccc5e66f44",
      "sourcePort": "out0",
      "target": "33848961e2",
      "points": [
        {
          "x": 1967,
          "y": 64
        },
        {
          "x": 1860,
          "y": 139
        }
      ]
    },
    {
      "source": "33848961e2",
      "sourcePort": "out0",
      "target": "a50497a035",
      "points": [
        {
          "x": 1967,
          "y": 258
        },
        {
          "x": 1855,
          "y": 309
        }
      ]
    },
    {
      "source": "a50497a035",
      "sourcePort": "out0",
      "target": "bc4b3d2bac",
      "points": [
        {
          "x": 1961,
          "y": 392
        },
        {
          "x": 1875,
          "y": 439
        }
      ]
    },
    {
      "source": "bc4b3d2bac",
      "sourcePort": "out0",
      "target": "97916dfc8a",
      "points": [
        {
          "x": 1982,
          "y": 541
        },
        {
          "x": 1885,
          "y": 609
        }
      ]
    },
    {
      "source": "skill-5278d0",
      "sourcePort": "out0",
      "target": "0460a29d40",
      "points": [
        {
          "x": 1077,
          "y": 230
        },
        {
          "x": 975,
          "y": 319
        }
      ]
    },
    {
      "source": "skill-5278d0",
      "sourcePort": "out1",
      "target": "0460a29d40",
      "points": [
        {
          "x": 1077,
          "y": 255
        },
        {
          "x": 975,
          "y": 319
        }
      ]
    },
    {
      "source": "skill-535cbf",
      "sourcePort": "out0",
      "target": "366bd4f1a2",
      "points": [
        {
          "x": 1087,
          "y": 719
        },
        {
          "x": 985,
          "y": 814
        }
      ]
    },
    {
      "source": "skill-f13eb7",
      "sourcePort": "out0",
      "target": "fa88e23732",
      "points": [
        {
          "x": 1107,
          "y": 1009
        },
        {
          "x": 1265,
          "y": -71
        }
      ]
    },
    {
      "source": "skill-0f01ab",
      "sourcePort": "out0",
      "target": "1a4e39259c",
      "points": [
        {
          "x": 1377,
          "y": 739
        },
        {
          "x": 1290,
          "y": 838
        }
      ]
    },
    {
      "source": "skill-0f01ab",
      "sourcePort": "out1",
      "target": "1a4e39259c",
      "points": [
        {
          "x": 1377,
          "y": 764
        },
        {
          "x": 1290,
          "y": 838
        }
      ]
    },
    {
      "source": "skill-2ef472",
      "sourcePort": "out0",
      "target": "ccc5e66f44",
      "points": [
        {
          "x": 1727,
          "y": 1019
        },
        {
          "x": 1860,
          "y": -56
        }
      ]
    }
  ]
}