{
  "nodes": [
    {
      "id": "299718",
      "position": {}
    },
    {
      "id": "794038",
      "position": {}
    },
    {
      "id": "156228",
      "position": {}
    },
    {
      "id": "106805",
      "position": {}
    }
  ]
}