{
  "version": "0.0.1",
  "catchAll": {
    "next": []
  },
  "startNode": "entry",
  "skillData": {
    "contentId": "choice-0006",
    "keywords": {
      "true": [
        "true"
      ],
      "false": [
        "false"
      ]
    },
    "config": {}
  },
  "nodes": [
    {
      "name": "entry",
      "onEnter": [
        "say #!choice-0006 {\"skill\":\"choice\"}"
      ],
      "next": [
        {
          "condition": "true",
          "node": "parse"
        }
      ],
      "id": "694803"
    },
    {
      "name": "parse",
      "onReceive": [
        "basic-skills/choice_parse_answer {\"contentId\":\"choice-0006\",\"keywords\":{\"true\":[\"true\"],\"false\":[\"false\"]},\"config\":{}}"
      ],
      "next": [
        {
          "condition": "temp['skill-choice-valid'] === true",
          "node": "#"
        },
        {
          "condition": "true",
          "node": "invalid"
        }
      ],
      "onEnter": [],
      "id": "566256"
    },
    {
      "name": "invalid",
      "onEnter": [
        "basic-skills/choice_invalid_answer"
      ],
      "next": [
        {
          "condition": "temp['skill-choice-invalid-count'] <= undefined",
          "node": "sorry"
        },
        {
          "condition": "true",
          "node": "#"
        }
      ],
      "id": "603034"
    },
    {
      "name": "sorry",
      "onEnter": [
        "say #!choice-0006 {\"skill\":\"choice\"}"
      ],
      "next": [
        {
          "condition": "true",
          "node": "parse"
        }
      ],
      "id": "474209"
    }
  ]
}