{
  "id": "uu6lcsdnjr_hello",
  "data": {
    "answers": [
      "Hello! Nice to meet you!"
    ],
    "action": "text_redirect",
    "category": "",
    "enabled": true,
    "redirectNode": "Entry",
    "redirectFlow": "Section_1.flow.json",
    "questions": [
      "Hello",
      "Hi",
      "Hey",
      "What's up",
      "Heya",
      "hey there",
      "bonjour",
      "sup'",
      "Heyyyy"
    ]
  }
}